index
…
See $.data for the source Arrow object

Note that while the computation has occurred, we really haven’t “seen it” yet. Printing just reports back the 3x columns and their type.

Release the arrow into memory with collect()

We can execute the collect() function to finally pull the output into memory and display the result.

summarize_df |> 
  collect() |> 
  arrange(desc(avg_epa))

# A tibble: 32 × 3
   posteam     n avg_epa
   <chr>   <int>   <dbl>
 1 KC       1321  0.152 
 2 BUF      1240  0.144 
 3 GB       1105  0.120 
 4 TB       1263  0.116 
 5 LAC      1123  0.0945
 6 DAL      1212  0.0824
 7 NE       1097  0.0686
 8 PHI      1130  0.0605
 9 SF       1196  0.0588
10 LA       1309  0.0586
# … with 22 more rows
…
0.147 sec elapsed

# A tibble: 325 × 5
   posteam play_type       n  avg_epa total    
   <chr>   <chr>       <int>    <dbl> <chr>    
 1 WAS     kickoff      1898  0.235   1,080,552
 2 WAS     run         10093 -0.0591  1,080,552
 3 WAS     pass        13474 -0.0231  1,080,552
 4 WAS     field_goal    722 -0.172   1,080,552
 5 ARI     kickoff      1961  0.195   1,080,552
 6 ARI     pass        14413 -0.0565  1,080,552
 7 ARI     run          9181 -0.103   1,080,552
 8 ARI     field_goal    688 -0.0544  1,080,552
 9 ARI     extra_point   795  0.00767 1,080,552
10 WAS     <NA>          458 -0.0308  1,080,552
# … with 315 more rows
…
